{
  "iisSettings": {
    "windowsAuthentication": false,
    "anonymousAuthentication": true,
    "iisExpress": {
      "applicationUrl": "http://localhost:54741/",
      "sslPort": 0
    }
  },
  "profiles": {
    "GitLab CI demo": {
      "commandName": "IISExpress",
      "launchBrowser": true
    }
  }
}